^C:\YBW_GIT\MASTERPIECE_C_PROGRAMMING\CAMP\CAMP\DEBUG\NUM26X.OBJ
C:\YBW_GIT\MASTERPIECE_C_PROGRAMMING\CAMP\DEBUG\CAMP.EXE
C:\YBW_GIT\MASTERPIECE_C_PROGRAMMING\CAMP\DEBUG\CAMP.ILK
C:\YBW_GIT\MASTERPIECE_C_PROGRAMMING\CAMP\DEBUG\CAMP.PDB
